FIRMWARE_VER:10.0
MACHINE_MODEL:RK3399
MACHINE_ID:007
MANUFACTURER: RK3399
MAGIC: 0x5041524B
ATAG: 0x00200800
MACHINE: 3399
CHECK_MASK: 0x80
PWR_HLD: 0,0,A,0,1
TYPE: GPT
CMDLINE: mtdparts=rk29xxnand:0x00002000@0x00004000(uboot_a),0x00002000@0x00006000(uboot_b),0x00002000@0x00008000(trust_a),0x00002000@0x0000a000(trust_b),0x00002000@0x0000c000(misc),0x00002000@0x0000e000(dtb),0x00002000@0x00010000(dtbo_a),0x00002000@0x00012000(dtbo_b),0x00001000@0x00014000(vbmeta_a),0x00001000@0x00015000(vbmeta_b),0x00020000@0x00016000(boot_a),0x00020000@0x00036000(boot_b),0x00030000@0x00056000(backup),0x00002000@0x00086000(security),0x000c0000@0x00088000(cache),0x00008000@0x00148000(metadata),0x00002000@0x00150000(frp),0x00800000@0x00152000(super),-@0x00952000(userdata:grow)
